Técnicas de minería de datos
…
---

# Mejorando los data.frame: .orange[TIBBLE]

*  Muestran **.bg-purple_light[metainformación de las variables]**, y solo imprime por defecto las primeras filas.

```r
library(tibble)
tabla_tb <- tibble("x" = 1:50, "y" = rep(c("a", "b", "c", "d", "e"), 10),
                   "logica" = rep(c(TRUE, FALSE), 25))
tabla_tb
```

```
> # A tibble: 50 × 3
>        x y     logica
>    <int> <chr> <lgl> 
>  1     1 a     TRUE  
>  2     2 b     FALSE 
>  3     3 c     TRUE  
>  4     4 d     FALSE 
>  5     5 e     TRUE  
>  6     6 a     FALSE 
>  7     7 b     TRUE  
>  8     8 c     FALSE 
>  9     9 d     TRUE  
> 10    10 e     FALSE 
> # … with 40 more rows
> # ℹ Use `print(n = ...)` to see more rows
```

---

# Mejorando los data.frame: .orange[TIBBLE]
 
Puedes **imprimir las filas y columnas** que quieras con `print()`

```r
*print(tabla_tb, n = 12, width = Inf)
```

```
> # A tibble: 50 × 3
>        x y     logica
>    <int> <chr> <lgl> 
>  1     1 a     TRUE  
>  2     2 b     FALSE 
>  3     3 c     TRUE  
>  4     4 d     FALSE 
>  5     5 e     TRUE  
>  6     6 a     FALSE 
>  7     7 b     TRUE  
>  8     8 c     FALSE 
>  9     9 d     TRUE  
> 10    10 e     FALSE 
> 11    11 a     TRUE  
> 12    12 b     FALSE 
> # … with 38 more rows
> # ℹ Use `print(n = ...)` to see more rows
```
…
]

---

# Mejorando los data.frame: .orange[TIBBLE]

Si ya tienes un `data.frame` es altamente recomendable **.bg-purple_light[convertirlo a tibble]** con `as_tibble()` (del paquete `{dplyr}`)

```r
library(dplyr)
as_tibble(USArrests)
```

```
> # A tibble: 50 × 4
>    Murder Assault UrbanPop  Rape
>     <dbl>   <int>    <int> <dbl>
>  1   13.2     236       58  21.2
>  2   10       263       48  44.5
>  3    8.1     294       80  31  
>  4    8.8     190       50  19.5
>  5    9       276       91  40.6
>  6    7.9     204       78  38.7
>  7    3.3     110       77  11.1
>  8    5.9     238       72  15.8
>  9   15.4     335       80  31.9
> 10   17.4     211       60  25.8
> # … with 40 more rows
> # ℹ Use `print(n = ...)` to see more rows
```
…
]

.panel[.panel-name[Solución ej. 3]

```r
# Filtramos filas
filtro_fila <- subset(airquality, subset = Month == 8)
filtro_fila
```

```
> # A tibble: 31 × 6
>    Ozone Solar.R  Wind  Temp Month   Day
>    <int>   <int> <dbl> <int> <int> <int>
>  1    39      83   6.9    81     8     1
>  2     9      24  13.8    81     8     2
>  3    16      77   7.4    82     8     3
>  4    78      NA   6.9    86     8     4
>  5    35      NA   7.4    85     8     5
>  6    66      NA   4.6    87     8     6
>  7   122     255   4      89     8     7
>  8    89     229  10.3    90     8     8
>  9   110     207   8      90     8     9
> 10    NA     222   8.6    92     8    10
> # … with 21 more rows
> # ℹ Use `print(n = ...)` to see more rows
```
…
* 📝 **Ejercicio 6**:  selecciona los datos de temperatura y viento de agosto. Traduce a castellano el nombre de las columnas del conjunto filtrado.

* 📝 **Ejercicio 7**: añade a los datos originales una columna con la fecha completa (recuerda que es del año 1973 todas las observaciones).

]

.panel[.panel-name[Solución ej. 4]

```r
subset(airquality, subset = !(Month %in% c(7, 8)))
```

```
> # A tibble: 91 × 6
>    Ozone Solar.R  Wind  Temp Month   Day
>    <int>   <int> <dbl> <int> <int> <int>
>  1    41     190   7.4    67     5     1
>  2    36     118   8      72     5     2
>  3    12     149  12.6    74     5     3
>  4    18     313  11.5    62     5     4
>  5    NA      NA  14.3    56     5     5
>  6    28      NA  14.9    66     5     6
>  7    23     299   8.6    65     5     7
>  8    19      99  13.8    59     5     8
>  9     8      19  20.1    61     5     9
> 10    NA     194   8.6    69     5    10
> # … with 81 more rows
> # ℹ Use `print(n = ...)` to see more rows
```

]

.panel[.panel-name[Solución ej. 5]

```r
# Filtramos columnas
filtro_col <- subset(airquality,  select = c("Ozone", "Temp"))
filtro_col
```

```
> # A tibble: 153 × 2
>    Ozone  Temp
>    <int> <int>
>  1    41    67
>  2    36    72
>  3    12    74
>  4    18    62
>  5    NA    56
>  6    28    66
>  7    23    65
>  8    19    59
>  9     8    61
> 10    NA    69
> # … with 143 more rows
> # ℹ Use `print(n = ...)` to see more rows
```

]

.panel[.panel-name[Solución ej. 6]

```r
datos <- subset(airquality, subset = Month == 8, select = c("Temp", "Wind"))
datos 
```

```
> # A tibble: 31 × 2
>     Temp  Wind
>    <int> <dbl>
>  1    81   6.9
>  2    81  13.8
>  3    82   7.4
>  4    86   6.9
>  5    85   7.4
>  6    87   4.6
>  7    89   4  
>  8    90  10.3
>  9    90   8  
> 10    92   8.6
> # … with 21 more rows
> # ℹ Use `print(n = ...)` to see more rows
```
…
]

.panel[.panel-name[Solución ej. 7]

```r
nuevos_datos <- 
  tibble(airquality, "fecha" = as_date(glue("1973-{Month}-{Day}")))
nuevos_datos
```

```
> # A tibble: 153 × 7
>    Ozone Solar.R  Wind  Temp Month   Day fecha     
>    <int>   <int> <dbl> <int> <int> <int> <date>    
>  1    41     190   7.4    67     5     1 1973-05-01
>  2    36     118   8      72     5     2 1973-05-02
>  3    12     149  12.6    74     5     3 1973-05-03
>  4    18     313  11.5    62     5     4 1973-05-04
>  5    NA      NA  14.3    56     5     5 1973-05-05
>  6    28      NA  14.9    66     5     6 1973-05-06
>  7    23     299   8.6    65     5     7 1973-05-07
>  8    19      99  13.8    59     5     8 1973-05-08
>  9     8      19  20.1    61     5     9 1973-05-09
> 10    NA     194   8.6    69     5    10 1973-05-10
> # … with 143 more rows
> # ℹ Use `print(n = ...)` to see more rows
```
…
name: oms

# .orange[CASO PRÁCTICO]: datos de la OMS

Instala el paquete `{tidyr}` y usa el conjunto `who` contenido en él mismo (sobre casos de tuberculosis). Lee la ayuda `? who` para detalles de los datos.  

```r
# install.packages("tidyr")
library(tidyr)
who
```

```
> # A tibble: 7,240 × 60
>    country     iso2  iso3   year new_s…¹ new_s…² new_s…³ new_s…⁴ new_s…⁵ new_s…⁶
>    <chr>       <chr> <chr> <int>   <int>   <int>   <int>   <int>   <int>   <int>
>  1 Afghanistan AF    AFG    1980      NA      NA      NA      NA      NA      NA
>  2 Afghanistan AF    AFG    1981      NA      NA      NA      NA      NA      NA
>  3 Afghanistan AF    AFG    1982      NA      NA      NA      NA      NA      NA
>  4 Afghanistan AF    AFG    1983      NA      NA      NA      NA      NA      NA
>  5 Afghanistan AF    AFG    1984      NA      NA      NA      NA      NA      NA
>  6 Afghanistan AF    AFG    1985      NA      NA      NA      NA      NA      NA
>  7 Afghanistan AF    AFG    1986      NA      NA      NA      NA      NA      NA
>  8 Afghanistan AF    AFG    1987      NA      NA      NA      NA      NA      NA
>  9 Afghanistan AF    AFG    1988      NA      NA      NA      NA      NA      NA
> 10 Afghanistan AF    AFG    1989      NA      NA      NA      NA      NA      NA
> # … with 7,230 more rows, 50 more variables: new_sp_m65 <int>,
> #   new_sp_f014 <int>, new_sp_f1524 <int>, new_sp_f2534 <int>,
> #   new_sp_f3544 <int>, new_sp_f4554 <int>, new_sp_f5564 <int>,
> #   new_sp_f65 <int>, new_sn_m014 <int>, new_sn_m1524 <int>,
> #   new_sn_m2534 <int>, new_sn_m3544 <int>, new_sn_m4554 <int>,
> #   new_sn_m5564 <int>, new_sn_m65 <int>, new_sn_f014 <int>,
> #   new_sn_f1524 <int>, new_sn_f2534 <int>, new_sn_f3544 <int>, …
> # ℹ Use `print(n = ...)` to see more rows, and `colnames()` to see all variable names
```
…
]

--

Por ejemplo, vamos a **filtrar** aquellos personajes con **.bg-purple_light[ojos marrones]**.

```r
starwars %>%
* filter(eye_color == "brown")
```

```
> # A tibble: 21 × 14
>    name        height  mass hair_…¹ skin_…² eye_c…³ birth…⁴ sex   gender homew…⁵
>    <chr>        <int> <dbl> <chr>   <chr>   <chr>     <dbl> <chr> <chr>  <chr>  
>  1 Leia Organa    150  49   brown   light   brown      19   fema… femin… Aldera…
>  2 Biggs Dark…    183  84   black   light   brown      24   male  mascu… Tatooi…
>  3 Han Solo       180  80   brown   fair    brown      29   male  mascu… Corell…
>  4 Yoda            66  17   white   green   brown     896   male  mascu… <NA>   
>  5 Boba Fett      183  78.2 black   fair    brown      31.5 male  mascu… Kamino 
>  6 Lando Calr…    177  79   black   dark    brown      31   male  mascu… Socorro
>  7 Arvel Cryn…     NA  NA   brown   fair    brown      NA   male  mascu… <NA>   
>  8 Wicket Sys…     88  20   brown   brown   brown       8   male  mascu… Endor  
>  9 Quarsh Pan…    183  NA   black   dark    brown      62   <NA>  <NA>   Naboo  
> 10 Shmi Skywa…    163  NA   black   fair    brown      72   fema… femin… Tatooi…
> # … with 11 more rows, 4 more variables: species <chr>, films <list>,
> #   vehicles <list>, starships <list>, and abbreviated variable names
> #   ¹​hair_color, ²​skin_color, ³​eye_color, ⁴​birth_year, ⁵​homeworld
> # ℹ Use `print(n = ...)` to see more rows, and `colnames()` to see all variable names
```
…
]

---

# No aleatorio por condiciones: .orange[FILTER]

De la misma manera podemos **filtrar** los personajes que **.bg-purple_light[no tienen ojos marrones]** (en realidad estamos eliminando filas de alguna manera).

```r
starwars %>% filter(eye_color != "brown")
```

```
> # A tibble: 66 × 14
>    name        height  mass hair_…¹ skin_…² eye_c…³ birth…⁴ sex   gender homew…⁵
>    <chr>        <int> <dbl> <chr>   <chr>   <chr>     <dbl> <chr> <chr>  <chr>  
>  1 Luke Skywa…    172    77 blond   fair    blue       19   male  mascu… Tatooi…
>  2 C-3PO          167    75 <NA>    gold    yellow    112   none  mascu… Tatooi…
>  3 R2-D2           96    32 <NA>    white,… red        33   none  mascu… Naboo  
>  4 Darth Vader    202   136 none    white   yellow     41.9 male  mascu… Tatooi…
>  5 Owen Lars      178   120 brown,… light   blue       52   male  mascu… Tatooi…
>  6 Beru White…    165    75 brown   light   blue       47   fema… femin… Tatooi…
>  7 R5-D4           97    32 <NA>    white,… red        NA   none  mascu… Tatooi…
>  8 Obi-Wan Ke…    182    77 auburn… fair    blue-g…    57   male  mascu… Stewjon
>  9 Anakin Sky…    188    84 blond   fair    blue       41.9 male  mascu… Tatooi…
> 10 Wilhuff Ta…    180    NA auburn… fair    blue       64   male  mascu… Eriadu 
> # … with 56 more rows, 4 more variables: species <chr>, films <list>,
> #   vehicles <list>, starships <list>, and abbreviated variable names
> #   ¹​hair_color, ²​skin_color, ³​eye_color, ⁴​birth_year, ⁵​homeworld
> # ℹ Use `print(n = ...)` to see more rows, and `colnames()` to see all variable names
```

---

# No aleatorio por condiciones: .orange[FILTER]

Al ser una variable discreta, sería bastante lógico comprobar si toma algún valor **.bg-purple_light[dentro de una lista permitida]**  (por ejemplo, personjes con ojos marrones o azules).

```r
starwars %>% filter(eye_color %in% c("brown", "blue"))
```

```
> # A tibble: 40 × 14
>    name        height  mass hair_…¹ skin_…² eye_c…³ birth…⁴ sex   gender homew…⁵
>    <chr>        <int> <dbl> <chr>   <chr>   <chr>     <dbl> <chr> <chr>  <chr>  
>  1 Luke Skywa…    172    77 blond   fair    blue       19   male  mascu… Tatooi…
>  2 Leia Organa    150    49 brown   light   brown      19   fema… femin… Aldera…
>  3 Owen Lars      178   120 brown,… light   blue       52   male  mascu… Tatooi…
>  4 Beru White…    165    75 brown   light   blue       47   fema… femin… Tatooi…
>  5 Biggs Dark…    183    84 black   light   brown      24   male  mascu… Tatooi…
>  6 Anakin Sky…    188    84 blond   fair    blue       41.9 male  mascu… Tatooi…
>  7 Wilhuff Ta…    180    NA auburn… fair    blue       64   male  mascu… Eriadu 
>  8 Chewbacca      228   112 brown   unknown blue      200   male  mascu… Kashyy…
>  9 Han Solo       180    80 brown   fair    brown      29   male  mascu… Corell…
> 10 Jek Tono P…    180   110 brown   fair    blue       NA   male  mascu… Bestin…
> # … with 30 more rows, 4 more variables: species <chr>, films <list>,
> #   vehicles <list>, starships <list>, and abbreviated variable names
> #   ¹​hair_color, ²​skin_color, ³​eye_color, ⁴​birth_year, ⁵​homeworld
> # ℹ Use `print(n = ...)` to see more rows, and `colnames()` to see all variable names
```
…
* 📝 **Ejercicio 4**: selecciona del conjunto de `starwars` los personajes no humanos, hombres y que midan más de 170 cm, o los personajes con ojos marrones o rojos.

* 📝 **Ejercicio 5**: selecciona aquellos personajes de `starwars` que hayan pilotado más de 2 naves.

]

.panel[.panel-name[Sol. Ej. 1]

```r
starwars %>%
  filter(species == "Human")
```

```
> # A tibble: 35 × 14
>    name        height  mass hair_…¹ skin_…² eye_c…³ birth…⁴ sex   gender homew…⁵
>    <chr>        <int> <dbl> <chr>   <chr>   <chr>     <dbl> <chr> <chr>  <chr>  
>  1 Luke Skywa…    172    77 blond   fair    blue       19   male  mascu… Tatooi…
>  2 Darth Vader    202   136 none    white   yellow     41.9 male  mascu… Tatooi…
>  3 Leia Organa    150    49 brown   light   brown      19   fema… femin… Aldera…
>  4 Owen Lars      178   120 brown,… light   blue       52   male  mascu… Tatooi…
>  5 Beru White…    165    75 brown   light   blue       47   fema… femin… Tatooi…
>  6 Biggs Dark…    183    84 black   light   brown      24   male  mascu… Tatooi…
>  7 Obi-Wan Ke…    182    77 auburn… fair    blue-g…    57   male  mascu… Stewjon
>  8 Anakin Sky…    188    84 blond   fair    blue       41.9 male  mascu… Tatooi…
>  9 Wilhuff Ta…    180    NA auburn… fair    blue       64   male  mascu… Eriadu 
> 10 Han Solo       180    80 brown   fair    brown      29   male  mascu… Corell…
> # … with 25 more rows, 4 more variables: species <chr>, films <list>,
> #   vehicles <list>, starships <list>, and abbreviated variable names
> #   ¹​hair_color, ²​skin_color, ³​eye_color, ⁴​birth_year, ⁵​homeworld
> # ℹ Use `print(n = ...)` to see more rows, and `colnames()` to see all variable names
```

]

.panel[.panel-name[Sol. Ej. 2]

```r
starwars %>%
  filter(between(mass, 65, 90))
```

```
> # A tibble: 32 × 14
>    name        height  mass hair_…¹ skin_…² eye_c…³ birth…⁴ sex   gender homew…⁵
>    <chr>        <int> <dbl> <chr>   <chr>   <chr>     <dbl> <chr> <chr>  <chr>  
>  1 Luke Skywa…    172    77 blond   fair    blue       19   male  mascu… Tatooi…
>  2 C-3PO          167    75 <NA>    gold    yellow    112   none  mascu… Tatooi…
>  3 Beru White…    165    75 brown   light   blue       47   fema… femin… Tatooi…
>  4 Biggs Dark…    183    84 black   light   brown      24   male  mascu… Tatooi…
>  5 Obi-Wan Ke…    182    77 auburn… fair    blue-g…    57   male  mascu… Stewjon
>  6 Anakin Sky…    188    84 blond   fair    blue       41.9 male  mascu… Tatooi…
>  7 Han Solo       180    80 brown   fair    brown      29   male  mascu… Corell…
>  8 Greedo         173    74 <NA>    green   black      44   male  mascu… Rodia  
>  9 Wedge Anti…    170    77 brown   fair    hazel      21   male  mascu… Corell…
> 10 Palpatine      170    75 grey    pale    yellow     82   male  mascu… Naboo  
> # … with 22 more rows, 4 more variables: species <chr>, films <list>,
> #   vehicles <list>, starships <list>, and abbreviated variable names
> #   ¹​hair_color, ²​skin_color, ³​eye_color, ⁴​birth_year, ⁵​homeworld
> # ℹ Use `print(n = ...)` to see more rows, and `colnames()` to see all variable names
```

]

.panel[.panel-name[Sol. Ej. 3]

```r
starwars %>%
  filter(eye_color %in% c("brown", "red"))
```

```
> # A tibble: 26 × 14
>    name        height  mass hair_…¹ skin_…² eye_c…³ birth…⁴ sex   gender homew…⁵
>    <chr>        <int> <dbl> <chr>   <chr>   <chr>     <dbl> <chr> <chr>  <chr>  
>  1 R2-D2           96  32   <NA>    white,… red        33   none  mascu… Naboo  
>  2 Leia Organa    150  49   brown   light   brown      19   fema… femin… Aldera…
>  3 R5-D4           97  32   <NA>    white,… red        NA   none  mascu… Tatooi…
>  4 Biggs Dark…    183  84   black   light   brown      24   male  mascu… Tatooi…
>  5 Han Solo       180  80   brown   fair    brown      29   male  mascu… Corell…
>  6 Yoda            66  17   white   green   brown     896   male  mascu… <NA>   
>  7 Boba Fett      183  78.2 black   fair    brown      31.5 male  mascu… Kamino 
>  8 IG-88          200 140   none    metal   red        15   none  mascu… <NA>   
>  9 Bossk          190 113   none    green   red        53   male  mascu… Trando…
> 10 Lando Calr…    177  79   black   dark    brown      31   male  mascu… Socorro
> # … with 16 more rows, 4 more variables: species <chr>, films <list>,
> #   vehicles <list>, starships <list>, and abbreviated variable names
> #   ¹​hair_color, ²​skin_color, ³​eye_color, ⁴​birth_year, ⁵​homeworld
> # ℹ Use `print(n = ...)` to see more rows, and `colnames()` to see all variable names
```

]

.panel[.panel-name[Sol. Ej. 4]

```r
starwars %>%
  filter((species != "Human" & sex == "Male" & height > 170) |
           eye_color %in% c("brown", "red"))
```

```
> # A tibble: 26 × 14
>    name        height  mass hair_…¹ skin_…² eye_c…³ birth…⁴ sex   gender homew…⁵
>    <chr>        <int> <dbl> <chr>   <chr>   <chr>     <dbl> <chr> <chr>  <chr>  
>  1 R2-D2           96  32   <NA>    white,… red        33   none  mascu… Naboo  
>  2 Leia Organa    150  49   brown   light   brown      19   fema… femin… Aldera…
>  3 R5-D4           97  32   <NA>    white,… red        NA   none  mascu… Tatooi…
>  4 Biggs Dark…    183  84   black   light   brown      24   male  mascu… Tatooi…
>  5 Han Solo       180  80   brown   fair    brown      29   male  mascu… Corell…
>  6 Yoda            66  17   white   green   brown     896   male  mascu… <NA>   
>  7 Boba Fett      183  78.2 black   fair    brown      31.5 male  mascu… Kamino 
>  8 IG-88          200 140   none    metal   red        15   none  mascu… <NA>   
>  9 Bossk          190 113   none    green   red        53   male  mascu… Trando…
> 10 Lando Calr…    177  79   black   dark    brown      31   male  mascu… Socorro
> # … with 16 more rows, 4 more variables: species <chr>, films <list>,
> #   vehicles <list>, starships <list>, and abbreviated variable names
> #   ¹​hair_color, ²​skin_color, ³​eye_color, ⁴​birth_year, ⁵​homeworld
> # ℹ Use `print(n = ...)` to see more rows, and `colnames()` to see all variable names
```
…
¿Cómo **.bg-purple_light[muestrear el 50%]** pero tener la **.bg-purple_light[misma proporción de hombres que de mujeres]** que en los datos originales?

Fíjate que tenemos 38 filas (el 50% de los 76 registros, redondeando hacia abajo) pero...

```r
starwars %>%
  filter(sex %in% c("female", "male")) %>% 
* group_by(sex) %>%
  slice_sample(prop = 0.5) %>% 
  ungroup()
```

```
> # A tibble: 38 × 14
>    name        height  mass hair_…¹ skin_…² eye_c…³ birth…⁴ sex   gender homew…⁵
>    <chr>        <int> <dbl> <chr>   <chr>   <chr>     <dbl> <chr> <chr>  <chr>  
>  1 Shmi Skywa…    163    NA black   fair    brown      72   fema… femin… Tatooi…
>  2 Rey             NA    NA brown   light   hazel      NA   fema… femin… <NA>   
>  3 Zam Wesell     168    55 blonde  fair, … yellow     NA   fema… femin… Zolan  
>  4 Leia Organa    150    49 brown   light   brown      19   fema… femin… Aldera…
>  5 Cordé          157    NA brown   light   brown      NA   fema… femin… Naboo  
>  6 Jocasta Nu     167    NA white   fair    blue       NA   fema… femin… Corusc…
>  7 Ayla Secura    178    55 none    blue    hazel      48   fema… femin… Ryloth 
>  8 Padmé Amid…    165    45 brown   light   brown      46   fema… femin… Naboo  
>  9 Darth Vader    202   136 none    white   yellow     41.9 male  mascu… Tatooi…
> 10 Sebulba        112    40 none    grey, … orange     NA   male  mascu… Malast…
> # … with 28 more rows, 4 more variables: species <chr>, films <list>,
> #   vehicles <list>, starships <list>, and abbreviated variable names
> #   ¹​hair_color, ²​skin_color, ³​eye_color, ⁴​birth_year, ⁵​homeworld
> # ℹ Use `print(n = ...)` to see more rows, and `colnames()` to see all variable names
```
…
