Tutorial de knn en R: hoteles dataset
…
Todas las variables de tipo texto representan categorías de una cualitativa así que las convertimos todas ellas a factor (modificación estructural –> fuera de la receta)

hoteles <- 
  hoteles_bruto %>%
  mutate(across(where(is.character), as_factor))
hoteles

# A tibble: 50,000 × 23
   hotel  lead_…¹ stays…² stays…³ adults child…⁴ meal  country marke…⁵
   <fct>    <dbl>   <dbl>   <dbl>  <dbl> <fct>   <fct> <fct>   <fct>  
 1 City_…     217       1       3      2 none    BB    DEU     Offlin…
 2 City_…       2       0       1      2 none    BB    PRT     Direct 
 3 Resor…      95       2       5      2 none    BB    GBR     Online…
 4 Resor…     143       2       6      2 none    HB    ROU     Online…
 5 Resor…     136       1       4      2 none    HB    PRT     Direct 
 6 City_…      67       2       2      2 none    SC    GBR     Online…
 7 Resor…      47       0       2      2 childr… BB    ESP     Direct 
 8 City_…      56       0       3      0 childr… BB    ESP     Online…
 9 City_…      80       0       4      2 none    BB    FRA     Online…
10 City_…       6       2       2      2 childr… BB    FRA     Online…
# … with 49,990 more rows, 14 more variables:
#   distribution_channel <fct>, is_repeated_guest <dbl>,
#   previous_cancellations <dbl>,
#   previous_bookings_not_canceled <dbl>, reserved_room_type <fct>,
#   assigned_room_type <fct>, booking_changes <dbl>,
#   deposit_type <fct>, days_in_waiting_list <dbl>,
#   customer_type <fct>, average_daily_rate <dbl>, …
# ℹ Use `print(n = ...)` to see more rows, and `colnames()` to see all variable names
…
Variable country

La variable country toma 155 modalidades pero tan solo 21 modalidades aparecen en más del 0.5% de registros (una de ellas es NULL): quizás sea más práctico reagrupar niveles de esos países (representan juntos aprox el 10% del total).

hoteles %>%
  count(country, sort = TRUE) %>%
  mutate(porc = 100*n/sum(n), cumul = cumsum(porc))

# A tibble: 155 × 4
   country     n  porc cumul
   <fct>   <int> <dbl> <dbl>
 1 PRT     14046 28.1   28.1
 2 GBR      6405 12.8   40.9
 3 FRA      5627 11.3   52.2
 4 ESP      4298  8.60  60.8
 5 DEU      4047  8.09  68.8
 6 IRL      1691  3.38  72.2
 7 ITA      1607  3.21  75.4
 8 BEL      1250  2.5   77.9
 9 NLD      1123  2.25  80.2
10 USA      1059  2.12  82.3
# … with 145 more rows
# ℹ Use `print(n = ...)` to see more rows

Aunque hay países que representa muy poco de los datos, parece que algunos son más propensos a reservas con niños, así que quizás una idea pueda ser decidir no solo por peso sino por % de niños, para que aprenda más de los 1’s que de los 0’s.

hoteles %>%
  group_by(country) %>% count(children) %>% 
  mutate(porc_children = 100*n/sum(n)) %>% 
  ungroup()

# A tibble: 237 × 4
   country children     n porc_children
   <fct>   <fct>    <int>         <dbl>
 1 DEU     none      3863         95.5 
 2 DEU     children   184          4.55
 3 PRT     none     12895         91.8 
 4 PRT     children  1151          8.19
 5 GBR     none      5997         93.6 
 6 GBR     children   408          6.37
 7 ROU     none       216         88.5 
 8 ROU     children    28         11.5 
 9 ESP     none      3824         89.0 
10 ESP     children   474         11.0 
# … with 227 more rows
# ℹ Use `print(n = ...)` to see more rows
…
No parece que el año influya mucho (veremos si influyen los días festivos en sí)

Sí parece que los meses de julio, agosto y diciembre influye mucho al tener más niños –> podemos agrupar los meses en "month_holy" y "month_no_holy"

hoteles %>% 
  group_by(m_arr) %>%
  count(children) %>% 
  mutate(porc = 100*n/sum(n))

# A tibble: 24 × 4
# Groups:   m_arr [12]
   m_arr children     n  porc
   <dbl> <fct>    <int> <dbl>
 1     1 none      2586 94.5 
 2     1 children   150  5.48
 3     2 none      3261 91.5 
 4     2 children   302  8.48
 5     3 none      4195 94.7 
 6     3 children   237  5.35
 7     4 none      4022 92.4 
 8     4 children   331  7.60
 9     5 none      4538 94.8 
10     5 children   249  5.20
# … with 14 more rows
# ℹ Use `print(n = ...)` to see more rows
…
Variable stays_in_week_nights

stays_in_week_nights: en realidad es una variable cualitativa más que cuantitativa, y a partir de 5 noches representa menos del 5% –> podríamos probar a dejarla tal cual o recategorizarla en 7 categorías (ninguna - 1 - 2 - 3 - 4 - 5 - más de 5)

hoteles %>%
  count(stays_in_week_nights, sort = TRUE) %>% 
  mutate(porc = 100*n/sum(n), cumul = cumsum(porc))

# A tibble: 31 × 4
   stays_in_week_nights     n   porc cumul
                  <dbl> <int>  <dbl> <dbl>
 1                    1 13619 27.2    27.2
 2                    2 12513 25.0    52.3
 3                    3  9161 18.3    70.6
 4                    5  4779  9.56   80.1
 5                    4  4020  8.04   88.2
 6                    0  3818  7.64   95.8
 7                    6   616  1.23   97.1
 8                   10   488  0.976  98.0
 9                    7   481  0.962  99.0
10                    8   303  0.606  99.6
# … with 21 more rows
# ℹ Use `print(n = ...)` to see more rows
…
previous_bookings_not_canceled: el 95.47% son 0, el 1.9% son 1 –> se podría probar a dejarla tal cual o recategorizar en 3 categorías

hoteles %>% count(previous_cancellations == 0, sort = TRUE)

# A tibble: 2 × 2
  `previous_cancellations == 0`     n
  <lgl>                         <int>
1 TRUE                          49619
2 FALSE                           381

hoteles %>% count(previous_bookings_not_canceled, sort = TRUE) %>%
  mutate(porc = 100*n/sum(n), cumul = cumsum(porc))

# A tibble: 57 × 4
   previous_bookings_not_canceled     n   porc cumul
                            <dbl> <int>  <dbl> <dbl>
 1                              0 47735 95.5    95.5
 2                              1   956  1.91   97.4
 3                              2   370  0.74   98.1
 4                              3   210  0.42   98.5
 5                              4   148  0.296  98.8
 6                              5   112  0.224  99.1
 7                              6    76  0.152  99.2
 8                              7    50  0.1    99.3
 9                              9    42  0.084  99.4
10                              8    39  0.078  99.5
# … with 47 more rows
# ℹ Use `print(n = ...)` to see more rows
…
Variable days_in_waiting_list

days_in_waiting_list: el 98% de los registros son 0 (y de los que no son casi todos no tienen niños) –> eliminar variable

hoteles %>% count(days_in_waiting_list, sort = TRUE) %>% 
  mutate(porc = 100*n/sum(n), cumul = cumsum(porc))

# A tibble: 92 × 4
   days_in_waiting_list     n   porc cumul
                  <dbl> <int>  <dbl> <dbl>
 1                    0 49116 98.2    98.2
 2                   58   114  0.228  98.5
 3                   87    47  0.094  98.6
 4                   38    34  0.068  98.6
 5                   63    34  0.068  98.7
 6                  122    33  0.066  98.8
 7                   65    26  0.052  98.8
 8                  223    26  0.052  98.9
 9                   77    25  0.05   98.9
10                   44    22  0.044  99.0
# … with 82 more rows
# ℹ Use `print(n = ...)` to see more rows
…
resamples = hoteles_val: las instrucciones de train-validación

grid = grid_knn: el grid de los parámetros.

# Entrenamos y evaluamos los 7 modelos
hoteles_knn_fit_tune <-
 hoteles_wflow %>%
  tune_grid(resamples = hoteles_val, grid = grid_knn,
            control = control_grid(verbose = TRUE),
            metrics = metric_set(accuracy, sensitivity,
                                 specificity, roc_auc))
hoteles_knn_fit_tune %>% collect_metrics()

# A tibble: 28 × 9
       k weight  dist .metric     .estim…¹  mean     n std_err .config
   <dbl> <chr>  <dbl> <chr>       <chr>    <dbl> <int>   <dbl> <fct>  
 1    20 inv        2 accuracy    binary   0.931     1      NA Prepro…
 2    20 inv        2 roc_auc     binary   0.768     1      NA Prepro…
 3    20 inv        2 sensitivity binary   0.295     1      NA Prepro…
 4    20 inv        2 specificity binary   0.985     1      NA Prepro…
 5    40 inv        2 accuracy    binary   0.928     1      NA Prepro…
 6    40 inv        2 roc_auc     binary   0.824     1      NA Prepro…
 7    40 inv        2 sensitivity binary   0.182     1      NA Prepro…
 8    40 inv        2 specificity binary   0.991     1      NA Prepro…
 9    60 inv        2 accuracy    binary   0.926     1      NA Prepro…
10    60 inv        2 roc_auc     binary   0.826     1      NA Prepro…
# … with 18 more rows, and abbreviated variable name ¹​.estimator
# ℹ Use `print(n = ...)` to see more rows
…
# Entrenamos y evaluamos los 18 modelos
hoteles_knn_fit_tune <-
 hoteles_wflow %>%
  tune_grid(resamples = hoteles_val, grid = grid_knn,
            control = control_grid(verbose = TRUE),
            metrics = metric_set(accuracy, sensitivity,
                                 specificity, roc_auc))
hoteles_knn_fit_tune %>% collect_metrics()

# A tibble: 72 × 9
       k weight    dist .metric   .esti…¹   mean     n std_err .config
   <dbl> <chr>    <dbl> <chr>     <chr>    <dbl> <int>   <dbl> <fct>  
 1    10 gaussian  0.01 accuracy  binary  0.929      1      NA Prepro…
 2    10 gaussian  0.01 roc_auc   binary  0.764      1      NA Prepro…
 3    10 gaussian  0.01 sensitiv… binary  0.148      1      NA Prepro…
 4    10 gaussian  0.01 specific… binary  0.995      1      NA Prepro…
 5    50 gaussian  0.01 accuracy  binary  0.924      1      NA Prepro…
 6    50 gaussian  0.01 roc_auc   binary  0.824      1      NA Prepro…
 7    50 gaussian  0.01 sensitiv… binary  0.0455     1      NA Prepro…
 8    50 gaussian  0.01 specific… binary  0.999      1      NA Prepro…
 9   100 gaussian  0.01 accuracy  binary  0.922      1      NA Prepro…
10   100 gaussian  0.01 roc_auc   binary  0.853      1      NA Prepro…
# … with 62 more rows, and abbreviated variable name ¹​.estimator
# ℹ Use `print(n = ...)` to see more rows
…
# Entrenamos y evaluamos los 18 modelos
hoteles_knn_fit_tune <-
 hoteles_wflow %>%
  tune_grid(resamples = hoteles_val, grid = grid_knn,
            control = control_grid(verbose = TRUE),
            metrics = metric_set(accuracy, sensitivity,
                                 specificity, roc_auc))
hoteles_knn_fit_tune %>% collect_metrics()

# A tibble: 72 × 9
       k weight    dist .metric   .esti…¹   mean     n std_err .config
   <int> <chr>    <dbl> <chr>     <chr>    <dbl> <int>   <dbl> <fct>  
 1    10 gaussian   0.1 accuracy  binary  0.932      1      NA Prepro…
 2    10 gaussian   0.1 roc_auc   binary  0.764      1      NA Prepro…
 3    10 gaussian   0.1 sensitiv… binary  0.182      1      NA Prepro…
 4    10 gaussian   0.1 specific… binary  0.996      1      NA Prepro…
 5    55 gaussian   0.1 accuracy  binary  0.925      1      NA Prepro…
 6    55 gaussian   0.1 roc_auc   binary  0.830      1      NA Prepro…
 7    55 gaussian   0.1 sensitiv… binary  0.0568     1      NA Prepro…
 8    55 gaussian   0.1 specific… binary  0.999      1      NA Prepro…
 9   100 gaussian   0.1 accuracy  binary  0.922      1      NA Prepro…
10   100 gaussian   0.1 roc_auc   binary  0.852      1      NA Prepro…
# … with 62 more rows, and abbreviated variable name ¹​.estimator
# ℹ Use `print(n = ...)` to see more rows
…
# A tibble: 2 × 4
  .metric  .estimator .estimate .config             
  <chr>    <chr>          <dbl> <fct>               
1 accuracy binary         0.928 Preprocessor1_Model1
2 roc_auc  binary         0.804 Preprocessor1_Model1

Predicción

Podemos volver a usar predict(), extrayendo el flujo de ese ajuste final con extract_workflow(final_knn_fit)

# Predecir el conjunto test: devuelve la clase
predict(extract_workflow(final_knn_fit), hoteles_test)

# A tibble: 500 × 1
   .pred_class
   <fct>      
 1 none       
 2 none       
 3 none       
 4 none       
 5 none       
 6 none       
 7 children   
 8 none       
 9 none       
10 none       
# … with 490 more rows
# ℹ Use `print(n = ...)` to see more rows

# Predecir las probabilidades (las necesitamos para la ROC)
predict(extract_workflow(final_knn_fit), hoteles_test, type = "prob")

# A tibble: 500 × 2
   .pred_children .pred_none
            <dbl>      <dbl>
 1         0.126       0.874
 2         0           1    
 3         0.0911      0.909
 4         0.363       0.637
 5         0.271       0.729
 6         0.0558      0.944
 7         0.611       0.389
 8         0.105       0.895
 9         0.468       0.532
10         0           1    
# … with 490 more rows
# ℹ Use `print(n = ...)` to see more rows
…
hoteles_knn_fit_tune <-
 hoteles_wflow %>%
  tune_grid(resamples = hoteles_val, grid = grid_knn,
            control = control_grid(verbose = TRUE, allow_par = TRUE, #<<
                                   pkgs = c("outliers")),
            metrics = metric_set(accuracy, sensitivity, specificity, roc_auc))
# finalizamos clusters
stopCluster(make_cluster)
registerDoSEQ()

# Métricas
hoteles_knn_fit_tune %>% collect_metrics()

# A tibble: 72 × 9
       k weight    dist .metric   .esti…¹   mean     n std_err .config
   <int> <chr>    <dbl> <chr>     <chr>    <dbl> <int>   <dbl> <fct>  
 1    10 gaussian   0.1 accuracy  binary  0.932      1      NA Prepro…
 2    10 gaussian   0.1 roc_auc   binary  0.764      1      NA Prepro…
 3    10 gaussian   0.1 sensitiv… binary  0.182      1      NA Prepro…
 4    10 gaussian   0.1 specific… binary  0.996      1      NA Prepro…
 5    55 gaussian   0.1 accuracy  binary  0.925      1      NA Prepro…
 6    55 gaussian   0.1 roc_auc   binary  0.830      1      NA Prepro…
 7    55 gaussian   0.1 sensitiv… binary  0.0568     1      NA Prepro…
 8    55 gaussian   0.1 specific… binary  0.999      1      NA Prepro…
 9   100 gaussian   0.1 accuracy  binary  0.922      1      NA Prepro…
10   100 gaussian   0.1 roc_auc   binary  0.852      1      NA Prepro…
# … with 62 more rows, and abbreviated variable name ¹​.estimator
# ℹ Use `print(n = ...)` to see more rows
…
