Tutorial de knn en R: iris dataset
…
De forma que podamos detectar muy fácil los outliers en función de los estrictos que queramos ser con ese \(k\). El tipo type = "chisq" nos hace algo parecido pero elevando las desviaciones al cuadrado y diviendo por la varianza.

En el caso de nuestros datos, usaremos \(k = 2.5\), y detectaremos aquellos datos que son outliers para luego pasarlos a un valor ausente.

iris_na_outliers <- 
  iris %>% 
  mutate(Sepal.Width =
           ifelse(abs(scores(Sepal.Width, type = "z")) > 2.5,
                  NA, Sepal.Width))
iris_na_outliers

# A tibble: 150 × 5
   Sepal.Length Sepal.Width Petal.Length Petal.Width Species
          <dbl>       <dbl>        <dbl>       <dbl> <fct>  
 1          5.1         3.5          1.4         0.2 setosa 
 2          4.9         3            1.4         0.2 setosa 
 3          4.7         3.2          1.3         0.2 setosa 
 4          4.6         3.1          1.5         0.2 setosa 
 5          5           3.6          1.4         0.2 setosa 
 6          5.4         3.9          1.7         0.4 setosa 
 7          4.6         3.4          1.4         0.3 setosa 
 8          5           3.4          1.5         0.2 setosa 
 9          4.4         2.9          1.4         0.2 setosa 
10          4.9         3.1          1.5         0.1 setosa 
# … with 140 more rows
# ℹ Use `print(n = ...)` to see more rows
…
Una vez que la receta está diseñada una buena práctica para evitar errores es comprobar que se ejecuta correctamente (y qué no sucede nada raro) en el conjunto de entrenamiento. Tras escribir la receta vamos a prepararla (con prep()) y a hornear los datos con bake(): para hornearla en el conjunto de train, basta con poner new_data = NULL.

# Aplicada a train
bake(iris_rec %>% prep(), new_data = NULL)

# A tibble: 105 × 4
   Sepal.Length Sepal.Width Petal.Width Species
          <dbl>       <dbl>       <dbl> <fct>  
 1       0.167        0.421      0.0417 setosa 
 2       0.111        0.526      0.0417 setosa 
 3       0.0833       0.474      0.0417 setosa 
 4       0.194        0.737      0.0417 setosa 
 5       0.306        0.895      0.125  setosa 
 6       0.194        0.632      0.0417 setosa 
 7       0.0278       0.368      0.0417 setosa 
 8       0.167        0.474      0      setosa 
 9       0.306        0.789      0.0417 setosa 
10       0.139        0.421      0      setosa 
# … with 95 more rows
# ℹ Use `print(n = ...)` to see more rows

# Aplicada a test
bake(iris_rec %>% prep(), new_data = iris_test)

# A tibble: 45 × 4
   Sepal.Length Sepal.Width Petal.Width Species
          <dbl>       <dbl>       <dbl> <fct>  
 1       0.222        0.684      0.0417 setosa 
 2       0.0833       0.632      0.0833 setosa 
 3       0.139        0.632      0.0417 setosa 
 4       0.222        0.684      0.0833 setosa 
 5       0.389        0.842      0.0833 setosa 
 6       0.306        0.632      0.0417 setosa 
 7       0.222        0.789      0.125  setosa 
 8       0.222        0.579      0.167  setosa 
 9       0.194        0.632      0.125  setosa 
10       0.25         0.632      0.0417 setosa 
# … with 35 more rows
# ℹ Use `print(n = ...)` to see more rows
…
Dicho ajuste guardado en iris_knn_fit podemos usarlo para predecir el conjunto test de dos maneras:

Clase

Probabilidades (de pertenencia a dichas clases, que realmente es el objetivo de estos modelos, predecir esas probabilidades de pertenencia)

Ambas se hacen con predict() pasándole un argumento de type diferente. Reminder: al tenerlo todo integrado en un flujo, aplicará el procesamiento que necesite al conjunto de test, tal cual lo hemos indicado en las instrucciones.

# Predecir el conjunto test: devuelve la clase
predict(iris_knn_fit, iris_test)

# A tibble: 45 × 1
   .pred_class
   <fct>      
 1 setosa     
 2 setosa     
 3 setosa     
 4 setosa     
 5 setosa     
 6 setosa     
 7 setosa     
 8 setosa     
 9 setosa     
10 setosa     
# … with 35 more rows
# ℹ Use `print(n = ...)` to see more rows

# Predecir las probabilidades (las necesitamos para la ROC)
predict(iris_knn_fit, iris_test, type = "prob")

# A tibble: 45 × 3
   .pred_setosa .pred_versicolor .pred_virginica
          <dbl>            <dbl>           <dbl>
 1            1                0               0
 2            1                0               0
 3            1                0               0
 4            1                0               0
 5            1                0               0
 6            1                0               0
 7            1                0               0
 8            1                0               0
 9            1                0               0
10            1                0               0
# … with 35 more rows
# ℹ Use `print(n = ...)` to see more rows

Dentro del paquete {parsnip} que hemos cargado dentro de {tidymodels} tenemos a nuestra disposición una función llamada augment() que nos permite incluir en una misma tabla las predicciones de la clase, de las probabilidades y los datos de test originales (añadiendo columnas).

# Para obtener las probabilidades en los datos (con variables)
prob_test <- augment(iris_knn_fit, iris_test)
prob_test

# A tibble: 45 × 9
   Sepal.Len…¹ Sepal…² Petal…³ Petal…⁴ Species .pred…⁵ .pred…⁶ .pred…⁷
         <dbl>   <dbl>   <dbl>   <dbl> <fct>   <fct>     <dbl>   <dbl>
 1         5.1     3.5     1.4     0.2 setosa  setosa        1       0
 2         4.6     3.4     1.4     0.3 setosa  setosa        1       0
 3         4.8     3.4     1.6     0.2 setosa  setosa        1       0
 4         5.1     3.5     1.4     0.3 setosa  setosa        1       0
 5         5.7     3.8     1.7     0.3 setosa  setosa        1       0
 6         5.4     3.4     1.7     0.2 setosa  setosa        1       0
 7         5.1     3.7     1.5     0.4 setosa  setosa        1       0
 8         5.1     3.3     1.7     0.5 setosa  setosa        1       0
 9         5       3.4     1.6     0.4 setosa  setosa        1       0
10         5.2     3.4     1.4     0.2 setosa  setosa        1       0
# … with 35 more rows, 1 more variable: .pred_virginica <dbl>, and
#   abbreviated variable names ¹​Sepal.Length, ²​Sepal.Width,
#   ³​Petal.Length, ⁴​Petal.Width, ⁵​.pred_class, ⁶​.pred_setosa,
#   ⁷​.pred_versicolor
# ℹ Use `print(n = ...)` to see more rows, and `colnames()` to see all variable names
…
