TÉCNICAS DE ANÁLISIS MULTIVARIANTE
…
]

📚 **«Principal Component Analysis»**. Hervé and Lynne (2010) <http://staff.ustc.edu.cn/~zwp/teach/MVA/abdi-awPCA2010.pdf>

---

# Caso inicial bidimensional

.pull-left[

Vamos a empezar por un **ejemplo sencillo (bidimensional)** tomando de `{iris}` solo las variables del pétalo.

```
> # A tibble: 150 × 2
>    Petal.Length Petal.Width
>           <dbl>       <dbl>
>  1          1.4         0.2
>  2          1.4         0.2
>  3          1.3         0.2
>  4          1.5         0.2
>  5          1.4         0.2
>  6          1.7         0.4
>  7          1.4         0.3
>  8          1.5         0.2
>  9          1.4         0.2
> 10          1.5         0.1
> # … with 140 more rows
```
…
---

# PCA en R: caso «manual»

Volvemos a nuestro **ejemplo sencillo (bidimensional)** tomando de `{iris}` solo las variables del pétalo.

```r
iris_bi <- 
  tibble(iris) %>%
  select(contains("Petal"))
iris_bi
```

```
> # A tibble: 150 × 2
>    Petal.Length Petal.Width
>           <dbl>       <dbl>
>  1          1.4         0.2
>  2          1.4         0.2
>  3          1.3         0.2
>  4          1.5         0.2
>  5          1.4         0.2
>  6          1.7         0.4
>  7          1.4         0.3
>  8          1.5         0.2
>  9          1.4         0.2
> 10          1.5         0.1
> # … with 140 more rows
```
…
# PCA en R: caso «manual»

**Primer paso**: **estandarizar** los datos.

```r
iris_bi_std <-
  iris_bi %>%
  mutate(Petal.Length = (Petal.Length - mean(Petal.Length)) /  sd(Petal.Length),
         Petal.Width = (Petal.Width - mean(Petal.Width)) / sd(Petal.Width))

iris_bi_std
```

```
> # A tibble: 150 × 2
>    Petal.Length Petal.Width
>           <dbl>       <dbl>
>  1        -1.34       -1.31
>  2        -1.34       -1.31
>  3        -1.39       -1.31
>  4        -1.28       -1.31
>  5        -1.34       -1.31
>  6        -1.17       -1.05
>  7        -1.34       -1.18
>  8        -1.28       -1.31
>  9        -1.34       -1.31
> 10        -1.28       -1.44
> # … with 140 more rows
```
…
---

# PCA en R: con prcomp

.pull-left[

En `pca$x` quedan guardados los **scores** o nuevas coordenadas de nuestros datos

```r
as_tibble(pca$x)
```

```
> # A tibble: 150 × 2
>      PC1     PC2
>    <dbl>   <dbl>
>  1 -1.87  0.0175
>  2 -1.87  0.0175
>  3 -1.91  0.0575
>  4 -1.83 -0.0226
>  5 -1.87  0.0175
>  6 -1.57  0.0828
>  7 -1.78  0.110 
>  8 -1.83 -0.0226
>  9 -1.87  0.0175
> 10 -1.92 -0.115 
> # … with 140 more rows
```

]

.pull-right[

También podemos calcularlas nosotros mismos **proyectando los datos en las nuevas componentes**

```r
as_tibble(as.matrix(iris_bi_std) %*%
            pca$rotation)
```

```
> # A tibble: 150 × 2
>      PC1     PC2
>    <dbl>   <dbl>
>  1 -1.87  0.0175
>  2 -1.87  0.0175
>  3 -1.91  0.0575
>  4 -1.83 -0.0226
>  5 -1.87  0.0175
>  6 -1.57  0.0828
>  7 -1.78  0.110 
>  8 -1.83 -0.0226
>  9 -1.87  0.0175
> 10 -1.92 -0.115 
> # … with 140 more rows
```
…
---

# PCA en R: con factominer y factoextra

En `pca_fit$ind$coord` tenemos guardados los **scores**, las **nuevas coordenadas de los datos** (los **datos proyectados** en las nuevas direcciones).

```r
pca_scores <- as_tibble(pca_fit$ind$coord)
names(pca_scores) <- c("PC_1", "PC_2", "PC_3", "PC_4")
pca_scores # Nuevas coordenadas
```

```
> # A tibble: 150 × 4
>     PC_1    PC_2    PC_3     PC_4
>    <dbl>   <dbl>   <dbl>    <dbl>
>  1 -2.26  0.480  -0.128  -0.0242 
>  2 -2.08 -0.674  -0.235  -0.103  
>  3 -2.36 -0.342   0.0442 -0.0284 
>  4 -2.30 -0.597   0.0913  0.0660 
>  5 -2.39  0.647   0.0157  0.0359 
>  6 -2.08  1.49    0.0270 -0.00661
>  7 -2.44  0.0476  0.335   0.0368 
>  8 -2.23  0.223  -0.0887  0.0246 
>  9 -2.33 -1.12    0.145   0.0269 
> 10 -2.18 -0.469  -0.254   0.0399 
> # … with 140 more rows
```
…
---

# Ejemplo tidymodels: algoritmo knn

### **Horneado (bake)**

Tras escribir la receta vamos a **prepararla** y a **hornear los datos** con `bake()`: para hornearla en el conjunto de train, basta con poner `new_data = NULL`.

```r
# Aplicado a train
bake(receta %>% prep(), new_data = NULL)
```

```
> # A tibble: 8,295 × 72
>    lead_time stays_in_weekend_nights stays_in_week_nigh… adults is_repeated_gue…
>        <dbl>                   <dbl>               <dbl>  <dbl> <lgl>           
>  1   0.0535                   0.143               0.2      0.25 FALSE           
>  2   0                        0                   0.0286   0.5  FALSE           
>  3   0.00185                  0.143               0.0286   0.5  FALSE           
>  4   0.0554                   0.0714              0.0571   0.5  FALSE           
>  5   0.0554                   0.0714              0.0857   0.5  FALSE           
>  6   0.116                    0                   0.0286   0.5  FALSE           
>  7   0                        0                   0.0286   0.25 FALSE           
>  8   0.0867                   0                   0.0286   0.5  FALSE           
>  9   0.0793                   0                   0.114    0.5  FALSE           
> 10   0.0185                   0                   0.0286   0.5  FALSE           
> # … with 8,285 more rows, and 67 more variables: average_daily_rate <dbl>,
> #   total_of_special_requests <dbl>, arrival_date <date>, children <fct>,
> #   hotel_Resort_Hotel <dbl>, meal_HB <dbl>, meal_SC <dbl>,
> #   meal_Undefined <dbl>, meal_other <dbl>, country_BEL <dbl>,
> #   country_BRA <dbl>, country_CHE <dbl>, country_CHN <dbl>, country_CN <dbl>,
> #   country_DEU <dbl>, country_ESP <dbl>, country_FRA <dbl>, country_GBR <dbl>,
> #   country_IRL <dbl>, country_ISR <dbl>, country_ITA <dbl>, …
```

---

# Ejemplo tidymodels: algoritmo knn

### **Horneado (bake)**

Para hornearla en el conjunto de test basta con poner `new_data = hotel_test`. Nuestra receta, aplicada a nuestros ingredientes, está lista. Este «horneado» con `bake()` solo lo necesitamos **si queremos ya aplicar la receta a nuestros datos**.

```r
bake(receta %>% prep(), new_data = hotel_test)
```

```
> # A tibble: 1,500 × 72
>    lead_time stays_in_weekend_nights stays_in_week_nigh… adults is_repeated_gue…
>        <dbl>                   <dbl>               <dbl>  <dbl> <lgl>           
>  1   0.00185                  0.0714              0.0286   0.5  FALSE           
>  2   0.0332                   0.0714              0.0286   0.5  FALSE           
>  3   0.0387                   0.0714              0.0857   0.5  FALSE           
>  4   0.00738                  0.143               0.0857   0.5  FALSE           
>  5   0.00369                  0                   0.0286   0.25 FALSE           
>  6   0.393                    0.0714              0.0286   0.5  FALSE           
>  7   0.0627                   0.143               0.143    0.5  FALSE           
>  8   0.0480                   0                   0.0286   0.25 FALSE           
>  9   0.0185                   0.143               0.0857   0.5  FALSE           
> 10   0.415                    0.0714              0.0857   0.25 FALSE           
> # … with 1,490 more rows, and 67 more variables: average_daily_rate <dbl>,
> #   total_of_special_requests <dbl>, arrival_date <date>, children <fct>,
> #   hotel_Resort_Hotel <dbl>, meal_HB <dbl>, meal_SC <dbl>,
> #   meal_Undefined <dbl>, meal_other <dbl>, country_BEL <dbl>,
> #   country_BRA <dbl>, country_CHE <dbl>, country_CHN <dbl>, country_CN <dbl>,
> #   country_DEU <dbl>, country_ESP <dbl>, country_FRA <dbl>, country_GBR <dbl>,
> #   country_IRL <dbl>, country_ISR <dbl>, country_ITA <dbl>, …
```
…
Dicho ajuste guardado en `hoteles_knn_fit` podemos usarlo para **predecir el conjunto test** de dos maneras:

* **Clase**
* **Probabilidades** (de pertenencia a dichas clases, necesario para el cálculo de la **curva ROC**)

Ambas se hacen con `predict()` pasándole un argumento de `type` diferente. **Reminder**: al tenerlo todo integrado en un flujo, **aplicará el procesamiento que necesite al conjunto de test**, tal cual lo hemos indicado en las instrucciones.

```r
# Predecir el conjunto test: devuelve la clase
predict(hoteles_knn_fit, hotel_test)
```

```
> # A tibble: 1,500 × 1
>    .pred_class
>    <fct>      
>  1 none       
>  2 none       
>  3 none       
>  4 none       
>  5 none       
>  6 none       
>  7 none       
>  8 none       
>  9 none       
> 10 none       
> # … with 1,490 more rows
```

```r
# Predecir las probabilidades (las necesitamos para la ROC)
predict(hoteles_knn_fit, hotel_test, type = "prob")
```

```
> # A tibble: 1,500 × 2
>    .pred_children .pred_none
>             <dbl>      <dbl>
>  1          0          1    
>  2          0          1    
>  3          0          1    
>  4          0          1    
>  5          0          1    
>  6          0          1    
>  7          0.167      0.833
>  8          0          1    
>  9          0.308      0.692
> 10          0          1    
> # … with 1,490 more rows
```
…
Con el argumento `num_comp = 4` indícamos el número de componentes y con `prefix` el prefijo con el que llamaremos a las nuevas variables

---

# PCA con tidymodels

```r
data_pc <- bake(receta %>% prep(), new_data = NULL)
data_pc
```

```
> # A tibble: 150 × 5
>    Species   PC1     PC2     PC3      PC4
>    <fct>   <dbl>   <dbl>   <dbl>    <dbl>
>  1 setosa  -2.26 -0.478   0.127   0.0241 
>  2 setosa  -2.07  0.672   0.234   0.103  
>  3 setosa  -2.36  0.341  -0.0441  0.0283 
>  4 setosa  -2.29  0.595  -0.0910 -0.0657 
>  5 setosa  -2.38 -0.645  -0.0157 -0.0358 
>  6 setosa  -2.07 -1.48   -0.0269  0.00659
>  7 setosa  -2.44 -0.0475 -0.334  -0.0367 
>  8 setosa  -2.23 -0.222   0.0884 -0.0245 
>  9 setosa  -2.33  1.11   -0.145  -0.0268 
> 10 setosa  -2.18  0.467   0.253  -0.0398 
> # … with 140 more rows
```
…
